{"photos":{"page":1,"pages":50,"perpage":10,"total":500,"photo":[{"id":"50111308421","owner":"43432513@N02","secret":"fbfa9140f6","server":"65535","farm":66,"title":"Windfarm I","ispublic":1,"isfriend":0,"isfamily":0},{"id":"50105780903","owner":"46484616@N04","secret":"ca07896754","server":"65535","farm":66,"title":"HMM Explored 2020-07-14 #2","ispublic":1,"isfriend":0,"isfamily":0},{"id":"50108980056","owner":"138004730@N03","secret":"10b60c4b33","server":"65535","farm":66,"title":"Swimming in a painting","ispublic":1,"isfriend":0,"isfamily":0},{"id":"50109017492","owner":"125877475@N06","secret":"110e651009","server":"65535","farm":66,"title":"Australia - Whitsunday Islands","ispublic":1,"isfriend":0,"isfamily":0},{"id":"50107491351","owner":"127753524@N02","secret":"d4b1038b73","server":"65535","farm":66,"title":"","ispublic":1,"isfriend":0,"isfamily":0},{"id":"50108390866","owner":"157866246@N05","secret":"1c90018d6d","server":"65535","farm":66,"title":"Bicis","ispublic":1,"isfriend":0,"isfamily":0},{"id":"50110858922","owner":"129341115@N05","secret":"652b484749","server":"65535","farm":66,"title":"Baptism","ispublic":1,"isfriend":0,"isfamily":0},{"id":"50110485831","owner":"52898856@N00","secret":"206021250e","server":"65535","farm":66,"title":"Threatening clouds","ispublic":1,"isfriend":0,"isfamily":0},{"id":"50109413281","owner":"111578507@N03","secret":"3715df28a6","server":"65535","farm":66,"title":"Lac Moraine,Canada","ispublic":1,"isfriend":0,"isfamily":0},{"id":"50111569346","owner":"54568510@N00","secret":"c8f0bd7210","server":"65535","farm":66,"title":"Lower Antelope Canyon","ispublic":1,"isfriend":0,"isfamily":0}]},"stat":"ok"}